<?xml version="1.0" encoding="UTF-8" standalone="no"?>
<!-- Created with Inkscape (http://www.inkscape.org/) -->

<svg
   xmlns:dc="http://purl.org/dc/elements/1.1/"
   xmlns:cc="http://creativecommons.org/ns#"
   xmlns:rdf="http://www.w3.org/1999/02/22-rdf-syntax-ns#"
   xmlns:svg="http://www.w3.org/2000/svg"
   xmlns="http://www.w3.org/2000/svg"
   xmlns:xlink="http://www.w3.org/1999/xlink"
   xmlns:sodipodi="http://sodipodi.sourceforge.net/DTD/sodipodi-0.dtd"
   xmlns:inkscape="http://www.inkscape.org/namespaces/inkscape"
   width="1024px"
   height="768px"
   id="svg4269"
   version="1.1"
   inkscape:version="0.48.4 r9939"
   sodipodi:docname="bkg2.svg">
  <defs
     id="defs4271">
    <linearGradient
       id="linearGradient4889">
      <stop
         style="stop-color:#84cfee;stop-opacity:1;"
         offset="0"
         id="stop4891" />
      <stop
         style="stop-color:#e4f7ff;stop-opacity:1;"
         offset="1"
         id="stop4893" />
    </linearGradient>
    <linearGradient
       inkscape:collect="always"
       xlink:href="#linearGradient4889"
       id="linearGradient4895"
       x1="524"
       y1="-8"
       x2="512"
       y2="792"
       gradientUnits="userSpaceOnUse" />
  </defs>
  <sodipodi:namedview
     id="base"
     pagecolor="#ffffff"
     bordercolor="#666666"
     borderopacity="1.0"
     inkscape:pageopacity="0.0"
     inkscape:pageshadow="2"
     inkscape:zoom="0.5"
     inkscape:cx="412.71069"
     inkscape:cy="306.43791"
     inkscape:current-layer="layer1"
     inkscape:document-units="px"
     showgrid="false"
     inkscape:window-width="1440"
     inkscape:window-height="814"
     inkscape:window-x="-4"
     inkscape:window-y="-4"
     inkscape:window-maximized="1" />
  <metadata
     id="metadata4274">
    <rdf:RDF>
      <cc:Work
         rdf:about="">
        <dc:format>image/svg+xml</dc:format>
        <dc:type
           rdf:resource="http://purl.org/dc/dcmitype/StillImage" />
        <dc:title></dc:title>
      </cc:Work>
    </rdf:RDF>
  </metadata>
  <g
     id="layer1"
     inkscape:label="bkg"
     inkscape:groupmode="layer"
     style="display:inline">
    <rect
       style="fill:#c4daa0;fill-opacity:1;fill-rule:nonzero;stroke:none"
       id="rect4279"
       width="1060"
       height="796"
       x="-10"
       y="-6" />
    <path
       style="fill:url(#linearGradient4895);fill-opacity:1;fill-rule:nonzero;stroke:none"
       d="m -8.2893085,391.53398 0,-397.0000048 528.9999985,0 529.00001,0 0,397.0000048 0,397 -529.00001,0 -528.9999985,0 0,-397 z"
       id="path4887"
       inkscape:connector-curvature="0" />
  </g>
</svg>
